\relax 
\providecommand\hyper@newdestlabel[2]{}
\providecommand\HyperFirstAtBeginDocument{\AtBeginDocument}
\HyperFirstAtBeginDocument{\ifx\hyper@anchor\@undefined
\global\let\oldcontentsline\contentsline
\gdef\contentsline#1#2#3#4{\oldcontentsline{#1}{#2}{#3}}
\global\let\oldnewlabel\newlabel
\gdef\newlabel#1#2{\newlabelxx{#1}#2}
\gdef\newlabelxx#1#2#3#4#5#6{\oldnewlabel{#1}{{#2}{#3}}}
\AtEndDocument{\ifx\hyper@anchor\@undefined
\let\contentsline\oldcontentsline
\let\newlabel\oldnewlabel
\fi}
\fi}
\global\let\hyper@last\relax 
\gdef\HyperFirstAtBeginDocument#1{#1}
\providecommand\HyField@AuxAddToFields[1]{}
\providecommand\HyField@AuxAddToCoFields[2]{}
\providecommand \oddpage@label [2]{}
\@writefile{toc}{\@ifundefined {etoctocstyle}{\let \etoc@startlocaltoc \@gobble \let \etoc@settocdepth \@gobble \let \etoc@depthtag \@gobble \let \etoc@setlocaltop \@gobble }{}}
\@writefile{toc}{\contentsline {chapter}{\numberline {1}Module Index}{1}{chapter.1}\protected@file@percent }
\@writefile{lof}{\addvspace {10\p@ }}
\@writefile{lot}{\addvspace {10\p@ }}
\@writefile{toc}{\contentsline {section}{\numberline {1.1}Modules}{1}{section.1.1}\protected@file@percent }
\@writefile{toc}{\contentsline {chapter}{\numberline {2}Class Index}{3}{chapter.2}\protected@file@percent }
\@writefile{lof}{\addvspace {10\p@ }}
\@writefile{lot}{\addvspace {10\p@ }}
\@writefile{toc}{\contentsline {section}{\numberline {2.1}Class List}{3}{section.2.1}\protected@file@percent }
\@writefile{toc}{\contentsline {chapter}{\numberline {3}File Index}{5}{chapter.3}\protected@file@percent }
\@writefile{lof}{\addvspace {10\p@ }}
\@writefile{lot}{\addvspace {10\p@ }}
\@writefile{toc}{\contentsline {section}{\numberline {3.1}File List}{5}{section.3.1}\protected@file@percent }
\@writefile{toc}{\contentsline {chapter}{\numberline {4}Module Documentation}{7}{chapter.4}\protected@file@percent }
\@writefile{lof}{\addvspace {10\p@ }}
\@writefile{lot}{\addvspace {10\p@ }}
\@writefile{toc}{\contentsline {section}{\numberline {4.1}main}{7}{section.4.1}\protected@file@percent }
\newlabel{group__MAIN}{{4.1}{7}{main}{section.4.1}{}}
\@writefile{toc}{\contentsline {section}{\numberline {4.2}alarm}{7}{section.4.2}\protected@file@percent }
\newlabel{group__ALARM}{{4.2}{7}{alarm}{section.4.2}{}}
\@writefile{toc}{\contentsline {section}{\numberline {4.3}libsi7021}{8}{section.4.3}\protected@file@percent }
\newlabel{group__LIBSI7021}{{4.3}{8}{libsi7021}{section.4.3}{}}
\@writefile{toc}{\contentsline {section}{\numberline {4.4}log}{8}{section.4.4}\protected@file@percent }
\newlabel{group__LOG}{{4.4}{8}{log}{section.4.4}{}}
\@writefile{toc}{\contentsline {section}{\numberline {4.5}reset utilities}{8}{section.4.5}\protected@file@percent }
\newlabel{group__RESET__UTILS}{{4.5}{8}{reset utilities}{section.4.5}{}}
\@writefile{toc}{\contentsline {chapter}{\numberline {5}Class Documentation}{9}{chapter.5}\protected@file@percent }
\@writefile{lof}{\addvspace {10\p@ }}
\@writefile{lot}{\addvspace {10\p@ }}
\@writefile{toc}{\contentsline {section}{\numberline {5.1}humidity Struct Reference}{9}{section.5.1}\protected@file@percent }
\newlabel{structhumidity}{{5.1}{9}{humidity Struct Reference}{section.5.1}{}}
\@writefile{toc}{\contentsline {subsection}{\numberline {5.1.1}Detailed Description}{9}{subsection.5.1.1}\protected@file@percent }
\@writefile{toc}{\contentsline {subsection}{\numberline {5.1.2}Member Data Documentation}{9}{subsection.5.1.2}\protected@file@percent }
\newlabel{structhumidity_ac4d707dfd38c015a893a6914d795a94d}{{5.1.2}{9}{Member Data Documentation}{subsection.5.1.2}{}}
\@writefile{toc}{\contentsline {subsubsection}{\numberline {5.1.2.1}error}{9}{subsubsection.5.1.2.1}\protected@file@percent }
\newlabel{structhumidity_a000d7aeddfa177b48ef488521443854b}{{5.1.2.1}{9}{\texorpdfstring {error}{error}}{subsubsection.5.1.2.1}{}}
\@writefile{toc}{\contentsline {subsubsection}{\numberline {5.1.2.2}humidity}{9}{subsubsection.5.1.2.2}\protected@file@percent }
\@writefile{toc}{\contentsline {section}{\numberline {5.2}temperature Struct Reference}{10}{section.5.2}\protected@file@percent }
\newlabel{structtemperature}{{5.2}{10}{temperature Struct Reference}{section.5.2}{}}
\@writefile{toc}{\contentsline {subsection}{\numberline {5.2.1}Detailed Description}{10}{subsection.5.2.1}\protected@file@percent }
\@writefile{toc}{\contentsline {subsection}{\numberline {5.2.2}Member Data Documentation}{10}{subsection.5.2.2}\protected@file@percent }
\newlabel{structtemperature_abd64f0222e0465fdde8725fcd8197870}{{5.2.2}{10}{Member Data Documentation}{subsection.5.2.2}{}}
\@writefile{toc}{\contentsline {subsubsection}{\numberline {5.2.2.1}celsius}{10}{subsubsection.5.2.2.1}\protected@file@percent }
\newlabel{structtemperature_a8a31ba246d7cf28e69224ea5fb50d41a}{{5.2.2.1}{10}{\texorpdfstring {celsius}{celsius}}{subsubsection.5.2.2.1}{}}
\@writefile{toc}{\contentsline {subsubsection}{\numberline {5.2.2.2}error}{10}{subsubsection.5.2.2.2}\protected@file@percent }
\@writefile{toc}{\contentsline {chapter}{\numberline {6}File Documentation}{11}{chapter.6}\protected@file@percent }
\@writefile{lof}{\addvspace {10\p@ }}
\@writefile{lot}{\addvspace {10\p@ }}
\@writefile{toc}{\contentsline {section}{\numberline {6.1}lib/alarm.h File Reference}{11}{section.6.1}\protected@file@percent }
\newlabel{alarm_8h}{{6.1}{11}{lib/alarm.h File Reference}{section.6.1}{}}
\gdef \LT@i {\LT@entry 
    {3}{30.79999pt}\LT@entry 
    {3}{51.41435pt}\LT@entry 
    {3}{147.91034pt}}
\@writefile{toc}{\contentsline {subsection}{\numberline {6.1.1}Function Documentation}{12}{subsection.6.1.1}\protected@file@percent }
\newlabel{alarm_8h_ae10643ba3d1a81f34d0a92d8209b3813}{{6.1.1}{12}{Function Documentation}{subsection.6.1.1}{}}
\@writefile{toc}{\contentsline {subsubsection}{\numberline {6.1.1.1}initAlarm()}{12}{subsubsection.6.1.1.1}\protected@file@percent }
\newlabel{alarm_8h_a0f579dd58a2ee88fcb50f474358fe8b3}{{6.1.1.1}{12}{\texorpdfstring {initAlarm()}{initAlarm()}}{table.6.1}{}}
\@writefile{toc}{\contentsline {subsubsection}{\numberline {6.1.1.2}resetAlarm()}{13}{subsubsection.6.1.1.2}\protected@file@percent }
\newlabel{alarm_8h_a49297b2b7505288d30cfe8a7e5ed19eb}{{6.1.1.2}{13}{\texorpdfstring {resetAlarm()}{resetAlarm()}}{subsubsection.6.1.1.2}{}}
\@writefile{toc}{\contentsline {subsubsection}{\numberline {6.1.1.3}startAlarm()}{13}{subsubsection.6.1.1.3}\protected@file@percent }
\newlabel{alarm_8h_a7ae58fc4d576671de97e4eab7d92d8ce}{{6.1.1.3}{13}{\texorpdfstring {startAlarm()}{startAlarm()}}{subsubsection.6.1.1.3}{}}
\@writefile{toc}{\contentsline {subsubsection}{\numberline {6.1.1.4}stopAlarm()}{13}{subsubsection.6.1.1.4}\protected@file@percent }
\@writefile{toc}{\contentsline {section}{\numberline {6.2}lib/libsi7021.h File Reference}{13}{section.6.2}\protected@file@percent }
\newlabel{libsi7021_8h}{{6.2}{13}{lib/libsi7021.h File Reference}{section.6.2}{}}
\@writefile{toc}{\contentsline {subsection}{\numberline {6.2.1}Function Documentation}{14}{subsection.6.2.1}\protected@file@percent }
\newlabel{libsi7021_8h_ae76391621353c25f3a2343d2a4fafef9}{{6.2.1}{14}{Function Documentation}{subsection.6.2.1}{}}
\@writefile{toc}{\contentsline {subsubsection}{\numberline {6.2.1.1}getHumidity()}{14}{subsubsection.6.2.1.1}\protected@file@percent }
\newlabel{libsi7021_8h_abda421e0949c241cf466df785323e35a}{{6.2.1.1}{15}{\texorpdfstring {getHumidity()}{getHumidity()}}{subsubsection.6.2.1.1}{}}
\@writefile{toc}{\contentsline {subsubsection}{\numberline {6.2.1.2}getTemperature()}{15}{subsubsection.6.2.1.2}\protected@file@percent }
\newlabel{libsi7021_8h_ae9181cd542e72bb9c8d01abbdb9cdb01}{{6.2.1.2}{15}{\texorpdfstring {getTemperature()}{getTemperature()}}{subsubsection.6.2.1.2}{}}
\@writefile{toc}{\contentsline {subsubsection}{\numberline {6.2.1.3}initSi7021()}{15}{subsubsection.6.2.1.3}\protected@file@percent }
\gdef \LT@ii {\LT@entry 
    {3}{41.13153pt}\LT@entry 
    {3}{61.24208pt}}
\@writefile{toc}{\contentsline {section}{\numberline {6.3}lib/log.h File Reference}{16}{section.6.3}\protected@file@percent }
\newlabel{log_8h}{{6.3}{16}{lib/log.h File Reference}{section.6.3}{}}
\gdef \LT@iii {\LT@entry 
    {3}{30.79999pt}\LT@entry 
    {3}{48.91246pt}\LT@entry 
    {3}{109.17505pt}}
\gdef \LT@iv {\LT@entry 
    {3}{30.79999pt}\LT@entry 
    {3}{48.91246pt}\LT@entry 
    {3}{142.32999pt}}
\@writefile{toc}{\contentsline {subsection}{\numberline {6.3.1}Function Documentation}{17}{subsection.6.3.1}\protected@file@percent }
\newlabel{log_8h_ab6b086f81e565757f1552eb8ac2e2413}{{6.3.1}{17}{Function Documentation}{subsection.6.3.1}{}}
\@writefile{toc}{\contentsline {subsubsection}{\numberline {6.3.1.1}writeLog()}{17}{subsubsection.6.3.1.1}\protected@file@percent }
\newlabel{log_8h_af1ee444057a7e59fd21c6da87892ab3b}{{6.3.1.1}{17}{\texorpdfstring {writeLog()}{writeLog()}}{table.6.3}{}}
\@writefile{toc}{\contentsline {subsubsection}{\numberline {6.3.1.2}writeUART()}{17}{subsubsection.6.3.1.2}\protected@file@percent }
\@writefile{toc}{\contentsline {section}{\numberline {6.4}lib/reset\discretionary {\mbox  {\scriptsize  $\hookleftarrow  $}}{}{}\_\discretionary {\mbox  {\scriptsize  $\hookleftarrow  $}}{}{}utils.h File Reference}{18}{section.6.4}\protected@file@percent }
\newlabel{reset__utils_8h}{{6.4}{18}{lib/reset\+\_\+utils.h File Reference}{section.6.4}{}}
\@writefile{toc}{\contentsline {subsection}{\numberline {6.4.1}Function Documentation}{18}{subsection.6.4.1}\protected@file@percent }
\newlabel{reset__utils_8h_a4efeb687ce28a7c2a5e83c7b1d4a9a97}{{6.4.1}{18}{Function Documentation}{subsection.6.4.1}{}}
\gdef \LT@v {\LT@entry 
    {3}{30.79999pt}\LT@entry 
    {3}{51.41435pt}\LT@entry 
    {3}{151.55467pt}}
\@writefile{toc}{\contentsline {subsubsection}{\numberline {6.4.1.1}closeReset()}{19}{subsubsection.6.4.1.1}\protected@file@percent }
\newlabel{reset__utils_8h_af17f612b9afe4584b565928f96552f54}{{6.4.1.1}{19}{\texorpdfstring {closeReset()}{closeReset()}}{subsubsection.6.4.1.1}{}}
\@writefile{toc}{\contentsline {subsubsection}{\numberline {6.4.1.2}initReset()}{19}{subsubsection.6.4.1.2}\protected@file@percent }
\newlabel{reset__utils_8h_a073e0f7063b09bf7b3f9f5ff6c5caaae}{{6.4.1.2}{19}{\texorpdfstring {initReset()}{initReset()}}{table.6.5}{}}
\@writefile{toc}{\contentsline {subsubsection}{\numberline {6.4.1.3}listenReset()}{19}{subsubsection.6.4.1.3}\protected@file@percent }
\@writefile{toc}{\contentsline {section}{\numberline {6.5}src/alarm.c File Reference}{20}{section.6.5}\protected@file@percent }
\newlabel{alarm_8c}{{6.5}{20}{src/alarm.c File Reference}{section.6.5}{}}
\gdef \LT@vi {\LT@entry 
    {3}{30.79999pt}\LT@entry 
    {3}{51.41435pt}\LT@entry 
    {3}{147.91034pt}}
\@writefile{toc}{\contentsline {subsection}{\numberline {6.5.1}Function Documentation}{21}{subsection.6.5.1}\protected@file@percent }
\newlabel{alarm_8c_ae10643ba3d1a81f34d0a92d8209b3813}{{6.5.1}{21}{Function Documentation}{subsection.6.5.1}{}}
\@writefile{toc}{\contentsline {subsubsection}{\numberline {6.5.1.1}initAlarm()}{21}{subsubsection.6.5.1.1}\protected@file@percent }
\newlabel{alarm_8c_a0f579dd58a2ee88fcb50f474358fe8b3}{{6.5.1.1}{21}{\texorpdfstring {initAlarm()}{initAlarm()}}{table.6.6}{}}
\@writefile{toc}{\contentsline {subsubsection}{\numberline {6.5.1.2}resetAlarm()}{21}{subsubsection.6.5.1.2}\protected@file@percent }
\newlabel{alarm_8c_a49297b2b7505288d30cfe8a7e5ed19eb}{{6.5.1.2}{21}{\texorpdfstring {resetAlarm()}{resetAlarm()}}{subsubsection.6.5.1.2}{}}
\@writefile{toc}{\contentsline {subsubsection}{\numberline {6.5.1.3}startAlarm()}{22}{subsubsection.6.5.1.3}\protected@file@percent }
\newlabel{alarm_8c_a7ae58fc4d576671de97e4eab7d92d8ce}{{6.5.1.3}{22}{\texorpdfstring {startAlarm()}{startAlarm()}}{subsubsection.6.5.1.3}{}}
\@writefile{toc}{\contentsline {subsubsection}{\numberline {6.5.1.4}stopAlarm()}{22}{subsubsection.6.5.1.4}\protected@file@percent }
\@writefile{toc}{\contentsline {subsection}{\numberline {6.5.2}Variable Documentation}{22}{subsection.6.5.2}\protected@file@percent }
\newlabel{alarm_8c_a10aae1cb8dd9816cfc8f711fda34fdd7}{{6.5.2}{22}{Variable Documentation}{subsection.6.5.2}{}}
\@writefile{toc}{\contentsline {subsubsection}{\numberline {6.5.2.1}alarmChip}{22}{subsubsection.6.5.2.1}\protected@file@percent }
\newlabel{alarm_8c_a7a633919feb007871422adf9f978db24}{{6.5.2.1}{22}{\texorpdfstring {alarmChip}{alarmChip}}{subsubsection.6.5.2.1}{}}
\@writefile{toc}{\contentsline {subsubsection}{\numberline {6.5.2.2}alarmLine}{22}{subsubsection.6.5.2.2}\protected@file@percent }
\@writefile{toc}{\contentsline {section}{\numberline {6.6}src/libsi7021.c File Reference}{22}{section.6.6}\protected@file@percent }
\newlabel{libsi7021_8c}{{6.6}{22}{src/libsi7021.c File Reference}{section.6.6}{}}
\@writefile{toc}{\contentsline {subsection}{\numberline {6.6.1}Function Documentation}{23}{subsection.6.6.1}\protected@file@percent }
\newlabel{libsi7021_8c_ae76391621353c25f3a2343d2a4fafef9}{{6.6.1}{23}{Function Documentation}{subsection.6.6.1}{}}
\@writefile{toc}{\contentsline {subsubsection}{\numberline {6.6.1.1}getHumidity()}{23}{subsubsection.6.6.1.1}\protected@file@percent }
\newlabel{libsi7021_8c_abda421e0949c241cf466df785323e35a}{{6.6.1.1}{23}{\texorpdfstring {getHumidity()}{getHumidity()}}{subsubsection.6.6.1.1}{}}
\gdef \LT@vii {\LT@entry 
    {3}{41.13153pt}\LT@entry 
    {3}{61.24208pt}}
\@writefile{toc}{\contentsline {subsubsection}{\numberline {6.6.1.2}getTemperature()}{24}{subsubsection.6.6.1.2}\protected@file@percent }
\newlabel{libsi7021_8c_ae9181cd542e72bb9c8d01abbdb9cdb01}{{6.6.1.2}{24}{\texorpdfstring {getTemperature()}{getTemperature()}}{subsubsection.6.6.1.2}{}}
\@writefile{toc}{\contentsline {subsubsection}{\numberline {6.6.1.3}initSi7021()}{24}{subsubsection.6.6.1.3}\protected@file@percent }
\@writefile{toc}{\contentsline {subsection}{\numberline {6.6.2}Variable Documentation}{24}{subsection.6.6.2}\protected@file@percent }
\newlabel{libsi7021_8c_a6fb021f1c9bd6c7fc72f1c0f24b81b38}{{6.6.2}{24}{Variable Documentation}{subsection.6.6.2}{}}
\@writefile{toc}{\contentsline {subsubsection}{\numberline {6.6.2.1}file}{25}{subsubsection.6.6.2.1}\protected@file@percent }
\@writefile{toc}{\contentsline {section}{\numberline {6.7}src/log.c File Reference}{25}{section.6.7}\protected@file@percent }
\newlabel{log_8c}{{6.7}{25}{src/log.c File Reference}{section.6.7}{}}
\@writefile{toc}{\contentsline {subsection}{\numberline {6.7.1}Function Documentation}{25}{subsection.6.7.1}\protected@file@percent }
\newlabel{log_8c_ab6b086f81e565757f1552eb8ac2e2413}{{6.7.1}{25}{Function Documentation}{subsection.6.7.1}{}}
\@writefile{toc}{\contentsline {subsubsection}{\numberline {6.7.1.1}writeLog()}{25}{subsubsection.6.7.1.1}\protected@file@percent }
\gdef \LT@viii {\LT@entry 
    {3}{30.79999pt}\LT@entry 
    {3}{48.91246pt}\LT@entry 
    {3}{109.17505pt}}
\gdef \LT@ix {\LT@entry 
    {3}{30.79999pt}\LT@entry 
    {3}{48.91246pt}\LT@entry 
    {3}{142.32999pt}}
\newlabel{log_8c_af1ee444057a7e59fd21c6da87892ab3b}{{6.7.1.1}{26}{\texorpdfstring {writeLog()}{writeLog()}}{table.6.8}{}}
\@writefile{toc}{\contentsline {subsubsection}{\numberline {6.7.1.2}writeUART()}{26}{subsubsection.6.7.1.2}\protected@file@percent }
\@writefile{toc}{\contentsline {section}{\numberline {6.8}src/main.c File Reference}{26}{section.6.8}\protected@file@percent }
\newlabel{main_8c}{{6.8}{26}{src/main.c File Reference}{section.6.8}{}}
\@writefile{toc}{\contentsline {subsection}{\numberline {6.8.1}Macro Definition Documentation}{27}{subsection.6.8.1}\protected@file@percent }
\newlabel{main_8c_a9837304be8a84896535a6c4a4c02fddc}{{6.8.1}{27}{Macro Definition Documentation}{subsection.6.8.1}{}}
\@writefile{toc}{\contentsline {subsubsection}{\numberline {6.8.1.1}ALERTE\_HUMIDITE}{27}{subsubsection.6.8.1.1}\protected@file@percent }
\newlabel{main_8c_a0006aba7ad6b8e203da39ee844e353ff}{{6.8.1.1}{27}{\texorpdfstring {ALERTE\_HUMIDITE}{ALERTE\_HUMIDITE}}{subsubsection.6.8.1.1}{}}
\@writefile{toc}{\contentsline {subsubsection}{\numberline {6.8.1.2}ALERTE\_TEMPERATURE}{27}{subsubsection.6.8.1.2}\protected@file@percent }
\newlabel{main_8c_a8ed4349cbb463b8aea9d678ca7c4b90c}{{6.8.1.2}{27}{\texorpdfstring {ALERTE\_TEMPERATURE}{ALERTE\_TEMPERATURE}}{subsubsection.6.8.1.2}{}}
\@writefile{toc}{\contentsline {subsubsection}{\numberline {6.8.1.3}PIPE1\_READ}{27}{subsubsection.6.8.1.3}\protected@file@percent }
\newlabel{main_8c_a3e19cd0ea6233ef066113bf532262ae7}{{6.8.1.3}{27}{\texorpdfstring {PIPE1\_READ}{PIPE1\_READ}}{subsubsection.6.8.1.3}{}}
\@writefile{toc}{\contentsline {subsubsection}{\numberline {6.8.1.4}PIPE1\_WRITE}{28}{subsubsection.6.8.1.4}\protected@file@percent }
\newlabel{main_8c_a95aeb6551236aaccf6eaa6dcf7b86e58}{{6.8.1.4}{28}{\texorpdfstring {PIPE1\_WRITE}{PIPE1\_WRITE}}{subsubsection.6.8.1.4}{}}
\@writefile{toc}{\contentsline {subsubsection}{\numberline {6.8.1.5}PIPE2\_READ}{28}{subsubsection.6.8.1.5}\protected@file@percent }
\newlabel{main_8c_a2180c77bd6d36779941952aa7bdfb0b3}{{6.8.1.5}{28}{\texorpdfstring {PIPE2\_READ}{PIPE2\_READ}}{subsubsection.6.8.1.5}{}}
\@writefile{toc}{\contentsline {subsubsection}{\numberline {6.8.1.6}PIPE2\_WRITE}{28}{subsubsection.6.8.1.6}\protected@file@percent }
\@writefile{toc}{\contentsline {subsection}{\numberline {6.8.2}Function Documentation}{28}{subsection.6.8.2}\protected@file@percent }
\newlabel{main_8c_a686fb0442e0aa41d0609da300531d4c4}{{6.8.2}{28}{Function Documentation}{subsection.6.8.2}{}}
\@writefile{toc}{\contentsline {subsubsection}{\numberline {6.8.2.1}displayError()}{28}{subsubsection.6.8.2.1}\protected@file@percent }
\newlabel{main_8c_abf3b11de60daf288692a7a2d9b4b59dc}{{6.8.2.1}{28}{\texorpdfstring {displayError()}{displayError()}}{subsubsection.6.8.2.1}{}}
\@writefile{toc}{\contentsline {subsubsection}{\numberline {6.8.2.2}displayRoutine()}{29}{subsubsection.6.8.2.2}\protected@file@percent }
\newlabel{main_8c_abf9e6b7e6f15df4b525a2e7705ba3089}{{6.8.2.2}{29}{\texorpdfstring {displayRoutine()}{displayRoutine()}}{subsubsection.6.8.2.2}{}}
\@writefile{toc}{\contentsline {subsubsection}{\numberline {6.8.2.3}main()}{29}{subsubsection.6.8.2.3}\protected@file@percent }
\newlabel{main_8c_ac826b61fbcc200231c26f4e48cbab464}{{6.8.2.3}{31}{\texorpdfstring {main()}{main()}}{subsubsection.6.8.2.3}{}}
\@writefile{toc}{\contentsline {subsubsection}{\numberline {6.8.2.4}resetRoutine()}{31}{subsubsection.6.8.2.4}\protected@file@percent }
\newlabel{main_8c_a23561be6865c6daf62c3742d97d49c04}{{6.8.2.4}{31}{\texorpdfstring {resetRoutine()}{resetRoutine()}}{subsubsection.6.8.2.4}{}}
\@writefile{toc}{\contentsline {subsubsection}{\numberline {6.8.2.5}si7021Routine()}{31}{subsubsection.6.8.2.5}\protected@file@percent }
\@writefile{toc}{\contentsline {section}{\numberline {6.9}src/reset\discretionary {\mbox  {\scriptsize  $\hookleftarrow  $}}{}{}\_\discretionary {\mbox  {\scriptsize  $\hookleftarrow  $}}{}{}utils.c File Reference}{32}{section.6.9}\protected@file@percent }
\newlabel{reset__utils_8c}{{6.9}{32}{src/reset\+\_\+utils.c File Reference}{section.6.9}{}}
\@writefile{toc}{\contentsline {subsection}{\numberline {6.9.1}Function Documentation}{32}{subsection.6.9.1}\protected@file@percent }
\newlabel{reset__utils_8c_a4efeb687ce28a7c2a5e83c7b1d4a9a97}{{6.9.1}{32}{Function Documentation}{subsection.6.9.1}{}}
\@writefile{toc}{\contentsline {subsubsection}{\numberline {6.9.1.1}closeReset()}{32}{subsubsection.6.9.1.1}\protected@file@percent }
\newlabel{reset__utils_8c_af17f612b9afe4584b565928f96552f54}{{6.9.1.1}{32}{\texorpdfstring {closeReset()}{closeReset()}}{subsubsection.6.9.1.1}{}}
\gdef \LT@x {\LT@entry 
    {3}{30.79999pt}\LT@entry 
    {3}{51.41435pt}\LT@entry 
    {3}{151.55467pt}}
\@writefile{toc}{\contentsline {subsubsection}{\numberline {6.9.1.2}initReset()}{33}{subsubsection.6.9.1.2}\protected@file@percent }
\newlabel{reset__utils_8c_a073e0f7063b09bf7b3f9f5ff6c5caaae}{{6.9.1.2}{33}{\texorpdfstring {initReset()}{initReset()}}{table.6.10}{}}
\@writefile{toc}{\contentsline {subsubsection}{\numberline {6.9.1.3}listenReset()}{33}{subsubsection.6.9.1.3}\protected@file@percent }
\@writefile{toc}{\contentsline {subsection}{\numberline {6.9.2}Variable Documentation}{34}{subsection.6.9.2}\protected@file@percent }
\newlabel{reset__utils_8c_a2bb34b20361bc589581ff66b6de76f6f}{{6.9.2}{34}{Variable Documentation}{subsection.6.9.2}{}}
\@writefile{toc}{\contentsline {subsubsection}{\numberline {6.9.2.1}resetChip}{34}{subsubsection.6.9.2.1}\protected@file@percent }
\newlabel{reset__utils_8c_a3fdcac96c68e59c48f3ad00fe50a74f0}{{6.9.2.1}{34}{\texorpdfstring {resetChip}{resetChip}}{subsubsection.6.9.2.1}{}}
\@writefile{toc}{\contentsline {subsubsection}{\numberline {6.9.2.2}resetEvent}{34}{subsubsection.6.9.2.2}\protected@file@percent }
\newlabel{reset__utils_8c_ad778719206711df4aff2379e2fba0195}{{6.9.2.2}{34}{\texorpdfstring {resetEvent}{resetEvent}}{subsubsection.6.9.2.2}{}}
\@writefile{toc}{\contentsline {subsubsection}{\numberline {6.9.2.3}resetLine}{34}{subsubsection.6.9.2.3}\protected@file@percent }
\@writefile{toc}{\contentsline {chapter}{Index}{35}{section*.30}\protected@file@percent }
\gdef \@abspage@last{42}
